6
6
6
6
6
6
6
6
6
6
6
6
6
6
6
9
9
9
9
9
16
16
16
16
16
16
16
16
16
16
26
26
26
26
26
26
26
26
26
26
43
43
43
43
43
43
43
43
43
43
43
43
43
93
93
93
93
93
93
93
400
400
400
400
400
400
400
400
400
400
1000
1000
1000
1000
1000
1000
1000
1000
1000
1000
2333
2333
2333
2333
2333
2333
2333
2333
2333
2333
5000
5000
5000
5000
5000
5000
5000
13333
13333
13333
