0 4
4 8
4 9
1 4
0 5
5 8
5 9
1 5
2 6
6 8
6 9
2 7
3 6
7 8
7 9
3 7
0 10
0 11
0 12
0 13
0 14
0 15
0 16
0 17
1 18
1 19
1 20
1 21
1 22
1 23
1 24
1 25
2 26
2 27
2 28
2 29
2 30
2 31
2 32
2 33
3 34
3 35
3 36
3 37
3 38
3 39
3 40
3 41
