algorithm generator seed number_of_sequences size_of_sequences cost_string tables scs-lenght bit-cost time[ms] 
fastgreedy random 1 100 16 bit-cost 1 148 24272 21166.4221287
fastgreedy random 1 100 16 bit-cost 1 148 24272 21317.7750111
fastgreedy random 1 100 16 bit-cost 1 148 24272 21411.8690491
fastgreedy random 1 10 16 bit-cost 1 87 8961 27.3458957672
fastgreedy random 1 10 16 bit-cost 2 110 7882 53.4551143646
fastgreedy random 1 10 16 bit-cost 3 124 7342 44.6681976318
fastgreedy random 1 200 16 bit-cost 1 157 27161 165284.332037
fastgreedy random 1 200 16 bit-cost 1 157 27161 167212.721109
fastgreedy random 1 200 16 bit-cost 1 157 27161 167929.778099
fastgreedy random 1 20 16 bit-cost 1 115 15065 181.072950363
fastgreedy random 1 20 16 bit-cost 1 115 15065 188.969135284
fastgreedy random 1 20 16 bit-cost 3 199 16785 179.569959641
fastgreedy random 1 50 16 bit-cost 1 141 22137 2621.96683884
fastgreedy random 1 50 16 bit-cost 1 141 22137 2734.60888863
fastgreedy random 1 50 16 bit-cost 1 141 22137 2791.88799858
fastgreedy random 2 100 16 bit-cost 1 150 24900 21111.3319397
fastgreedy random 2 100 16 bit-cost 1 150 24900 21482.3629856
fastgreedy random 2 100 16 bit-cost 1 150 24900 22013.5338306
fastgreedy random 2 10 16 bit-cost 1 98 11172 41.5580272675
fastgreedy random 2 10 16 bit-cost 2 120 9248 23.7929821014
fastgreedy random 2 10 16 bit-cost 3 126 7586 22.4268436432
fastgreedy random 2 200 16 bit-cost 1 161 28497 168290.724993
fastgreedy random 2 200 16 bit-cost 1 161 28497 168332.085848
fastgreedy random 2 200 16 bit-cost 1 161 28497 176731.472015
fastgreedy random 2 20 16 bit-cost 1 123 17097 180.037975311
fastgreedy random 2 20 16 bit-cost 1 123 17097 230.592012405
fastgreedy random 2 20 16 bit-cost 3 198 16470 191.667079926
fastgreedy random 2 50 16 bit-cost 1 135 20385 2655.7290554
fastgreedy random 2 50 16 bit-cost 1 135 20385 2778.20515633
fastgreedy random 2 50 16 bit-cost 1 135 20385 2910.93993187
fastgreedy random 3 100 16 bit-cost 1 148 24272 21176.6119003
fastgreedy random 3 100 16 bit-cost 1 148 24272 21291.8219566
fastgreedy random 3 100 16 bit-cost 1 148 24272 21539.0679836
fastgreedy random 3 10 16 bit-cost 1 84 8400 22.4800109863
fastgreedy random 3 10 16 bit-cost 2 107 7657 33.4448814392
fastgreedy random 3 10 16 bit-cost 3 122 7034 44.7039604187
fastgreedy random 3 200 16 bit-cost 1 158 27492 166427.620888
fastgreedy random 3 200 16 bit-cost 1 158 27492 167339.198828
fastgreedy random 3 200 16 bit-cost 1 158 27492 172988.415003
fastgreedy random 3 20 16 bit-cost 1 110 13860 177.163124084
fastgreedy random 3 20 16 bit-cost 1 110 13860 205.598115921
fastgreedy random 3 20 16 bit-cost 1 110 13860 266.426086426
fastgreedy random 3 50 16 bit-cost 1 143 22737 2609.2979908
fastgreedy random 3 50 16 bit-cost 1 143 22737 2866.4829731
fastgreedy random 3 50 16 bit-cost 1 143 22737 2868.94392967
fastgreedy random 4 100 16 bit-cost 1 150 24900 20757.6761246
fastgreedy random 4 100 16 bit-cost 1 150 24900 21064.7470951
fastgreedy random 4 100 16 bit-cost 1 150 24900 21142.9159641
fastgreedy random 4 10 16 bit-cost 1 96 10752 28.1150341034
fastgreedy random 4 10 16 bit-cost 2 120 9282 23.9050388336
fastgreedy random 4 10 16 bit-cost 3 128 7758 22.4380493164
fastgreedy random 4 200 16 bit-cost 1 162 28836 165802.289009
fastgreedy random 4 200 16 bit-cost 1 162 28836 168103.54495
fastgreedy random 4 200 16 bit-cost 1 162 28836 169947.896957
fastgreedy random 4 20 16 bit-cost 1 116 15312 184.08203125
fastgreedy random 4 20 16 bit-cost 1 116 15312 221.392154694
fastgreedy random 4 20 16 bit-cost 3 197 16619 179.866075516
fastgreedy random 4 50 16 bit-cost 1 143 22737 2670.9549427
fastgreedy random 4 50 16 bit-cost 1 143 22737 2884.05799866
fastgreedy random 4 50 16 bit-cost 1 143 22737 3121.0129261
fastgreedy random 5 100 16 bit-cost 1 153 25857 20911.0510349
fastgreedy random 5 100 16 bit-cost 1 153 25857 21905.3630829
fastgreedy random 5 100 16 bit-cost 1 153 25857 22061.3279343
fastgreedy random 5 10 16 bit-cost 1 93 10137 38.1720066071
fastgreedy random 5 10 16 bit-cost 2 108 7658 38.8989448547
fastgreedy random 5 10 16 bit-cost 3 124 7338 43.72215271
fastgreedy random 5 200 16 bit-cost 1 157 27161 166635.230064
fastgreedy random 5 200 16 bit-cost 1 157 27161 167516.952038
fastgreedy random 5 200 16 bit-cost 1 157 27161 168181.934118
fastgreedy random 5 20 16 bit-cost 1 120 16320 182.44099617
fastgreedy random 5 20 16 bit-cost 1 120 16320 220.592021942
fastgreedy random 5 20 16 bit-cost 3 205 17851 233.777999878
fastgreedy random 5 50 16 bit-cost 1 138 21252 2697.02601433
fastgreedy random 5 50 16 bit-cost 1 138 21252 2772.97401428
fastgreedy random 5 50 16 bit-cost 1 138 21252 2828.03702354
fastgreedy random 6 100 16 bit-cost 1 150 24900 21369.2882061
fastgreedy random 6 100 16 bit-cost 1 150 24900 21956.7270279
fastgreedy random 6 100 16 bit-cost 1 150 24900 22350.8570194
fastgreedy random 6 10 16 bit-cost 1 94 10340 46.9748973846
fastgreedy random 6 10 16 bit-cost 2 117 8897 23.9601135254
fastgreedy random 6 10 16 bit-cost 3 131 8059 25.3999233246
fastgreedy random 6 200 16 bit-cost 1 160 28160 168327.731848
fastgreedy random 6 200 16 bit-cost 1 160 28160 168709.530115
fastgreedy random 6 200 16 bit-cost 1 160 28160 168769.266844
fastgreedy random 6 20 16 bit-cost 1 115 15065 239.983081818
fastgreedy random 6 20 16 bit-cost 2 154 14372 210.865974426
fastgreedy random 6 20 16 bit-cost 2 154 14372 219.099998474
fastgreedy random 6 50 16 bit-cost 1 134 20100 2599.80201721
fastgreedy random 6 50 16 bit-cost 1 134 20100 2704.58602905
fastgreedy random 6 50 16 bit-cost 1 134 20100 2767.13585854
multilcs random 1 100 16 bit-cost 1 153 25857 74438.7359619
multilcs random 1 100 16 bit-cost 2 227 32209 72089.9310112
multilcs random 1 100 16 bit-cost 3 313 40853 72293.6999798
multilcs random 1 10 16 bit-cost 1 89 9345 111.27614975
multilcs random 1 10 16 bit-cost 2 112 9522 120.738983154
multilcs random 1 10 16 bit-cost 3 129 8705 139.346122742
multilcs random 1 200 16 bit-cost 1 157 27161 579862.822056
multilcs random 1 200 16 bit-cost 2 207 30249 583676.423073
multilcs random 1 200 16 bit-cost 3 310 42402 592095.161915
multilcs random 1 20 16 bit-cost 1 121 16577 840.985059738
multilcs random 1 20 16 bit-cost 2 184 20840 795.044898987
multilcs random 1 20 16 bit-cost 3 195 19661 756.796836853
multilcs random 1 50 16 bit-cost 1 141 22137 9177.82402039
multilcs random 1 50 16 bit-cost 2 200 25792 9064.54801559
multilcs random 1 50 16 bit-cost 3 253 29125 9211.10987663
multilcs random 2 100 16 bit-cost 1 149 24585 72418.3120728
multilcs random 2 100 16 bit-cost 2 237 34121 72267.2650814
multilcs random 2 100 16 bit-cost 3 338 45938 76941.6921139
multilcs random 2 10 16 bit-cost 1 100 11600 122.917890549
multilcs random 2 10 16 bit-cost 2 115 10077 128.741025925
multilcs random 2 10 16 bit-cost 3 126 7646 127.899169922
multilcs random 2 200 16 bit-cost 1 157 27161 618343.967915
multilcs random 2 200 16 bit-cost 2 225 33813 578103.710175
multilcs random 2 200 16 bit-cost 3 318 43194 582666.73708
multilcs random 2 20 16 bit-cost 1 110 13860 796.741008759
multilcs random 2 20 16 bit-cost 2 192 21704 823.828220367
multilcs random 2 20 16 bit-cost 3 213 19133 784.878969193
multilcs random 2 50 16 bit-cost 1 137 20961 9257.06005096
multilcs random 2 50 16 bit-cost 2 216 28962 10140.5701637
multilcs random 2 50 16 bit-cost 3 296 35394 9664.96300697
multilcs random 3 100 16 bit-cost 1 152 25536 73512.773037
multilcs random 3 100 16 bit-cost 2 246 35652 74405.1630497
multilcs random 3 100 16 bit-cost 3 324 42570 75276.9839764
multilcs random 3 10 16 bit-cost 1 89 9345 146.290063858
multilcs random 3 10 16 bit-cost 2 115 8513 102.35619545
multilcs random 3 10 16 bit-cost 3 126 7796 108.381032944
multilcs random 3 200 16 bit-cost 1 159 27825 590368.20507
multilcs random 3 200 16 bit-cost 2 236 34986 584728.176832
multilcs random 3 200 16 bit-cost 3 305 40851 615404.737949
multilcs random 3 20 16 bit-cost 1 110 13860 876.008033752
multilcs random 3 20 16 bit-cost 2 168 16808 765.244007111
multilcs random 3 20 16 bit-cost 3 205 17629 836.802959442
multilcs random 3 50 16 bit-cost 1 140 21840 9453.93896103
multilcs random 3 50 16 bit-cost 2 230 31188 10047.3511219
multilcs random 3 50 16 bit-cost 3 285 34029 9379.78696823
multilcs random 4 100 16 bit-cost 1 149 24585 72858.0350876
multilcs random 4 100 16 bit-cost 2 248 35970 72746.4292049
multilcs random 4 100 16 bit-cost 3 343 46409 71524.3239403
multilcs random 4 10 16 bit-cost 1 95 10545 112.826108932
multilcs random 4 10 16 bit-cost 2 119 9597 147.37200737
multilcs random 4 10 16 bit-cost 3 131 8301 130.056858063
multilcs random 4 200 16 bit-cost 1 156 26832 653477.385998
multilcs random 4 200 16 bit-cost 2 213 31817 662920.00103
multilcs random 4 200 16 bit-cost 3 314 43518 677767.556906
multilcs random 4 20 16 bit-cost 1 115 15065 860.498189926
multilcs random 4 20 16 bit-cost 2 176 18592 805.041074753
multilcs random 4 20 16 bit-cost 3 212 18866 789.159059525
multilcs random 4 50 16 bit-cost 1 135 20385 9311.44690514
multilcs random 4 50 16 bit-cost 2 238 32580 10511.7721558
multilcs random 4 50 16 bit-cost 3 325 40497 9175.29296875
multilcs random 5 100 16 bit-cost 1 148 24272 72473.222971
multilcs random 5 100 16 bit-cost 2 200 27808 79089.5719528
multilcs random 5 100 16 bit-cost 3 304 40472 79316.1690235
multilcs random 5 10 16 bit-cost 1 92 9936 128.264904022
multilcs random 5 10 16 bit-cost 2 119 8989 131.347894669
multilcs random 5 10 16 bit-cost 3 131 8237 113.510847092
multilcs random 5 200 16 bit-cost 1 158 27492 667909.454107
multilcs random 5 200 16 bit-cost 2 204 30122 664798.034191
multilcs random 5 200 16 bit-cost 3 320 45606 735464.644194
multilcs random 5 20 16 bit-cost 1 122 16836 812.615871429
multilcs random 5 20 16 bit-cost 2 158 17898 830.104827881
multilcs random 5 20 16 bit-cost 3 211 19605 835.090875626
multilcs random 5 50 16 bit-cost 1 143 22737 9503.74293327
multilcs random 5 50 16 bit-cost 2 213 27605 9777.24289894
multilcs random 5 50 16 bit-cost 3 312 38598 9496.33789062
multilcs random 6 100 16 bit-cost 1 148 24272 81058.0499172
multilcs random 6 100 16 bit-cost 2 209 28465 81779.6721458
multilcs random 6 100 16 bit-cost 3 268 33994 83292.4420834
multilcs random 6 10 16 bit-cost 1 90 9540 140.516042709
multilcs random 6 10 16 bit-cost 2 108 8712 148.088932037
multilcs random 6 10 16 bit-cost 3 132 8216 138.231039047
multilcs random 6 200 16 bit-cost 1 157 27161 647038.826942
multilcs random 6 200 16 bit-cost 2 261 40349 656489.557981
multilcs random 6 200 16 bit-cost 3 344 47544 668729.140043
multilcs random 6 20 16 bit-cost 1 119 16065 854.155778885
multilcs random 6 20 16 bit-cost 2 185 20185 933.389186859
multilcs random 6 20 16 bit-cost 3 200 18848 768.54300499
multilcs random 6 50 16 bit-cost 1 139 21545 9691.33687019
multilcs random 6 50 16 bit-cost 2 217 27857 9352.58483887
multilcs random 6 50 16 bit-cost 3 282 33386 9389.22905922
